[
{
"directory": "/home/bergiu/workspace/Uni/MCT/Projekt/msp432","command": "/opt/ti/ccsv7/tools/compiler/gcc-arm-none-eabi-6-2017-q1-update/bin/arm-none-eabi-g++ -D__MSP432P401R__ -DTARGET_IS_MSP432P4XX -I/opt/YAHAL/src/platform/msp432 -I/opt/YAHAL/include/interface -I/opt/YAHAL/src/driver -I/opt/YAHAL/src/task -I/opt/YAHAL/src/util -I/opt/YAHAL/src/uGUI -I/opt/YAHAL/src/uGUI/fonts -I/opt/YAHAL/include/platform/msp432 -I/opt/YAHAL/include/platform/msp432/CMSIS -ffunction-sections -fdata-sections -fno-unwind-tables -fno-asynchronous-unwind-tables -mcpu=cortex-m4 -mthumb -mfloat-abi=hard -mfpu=fpv4-sp-d16 -mabi=aapcs -g -gdwarf-3 -gstrict-dwarf -Wall -Wextra -fno-threadsafe-statics -fno-exceptions -std=c++11 -c -o Debug/communication.cpp.o communication.cpp -MMD -DLANGSERV","file": "/home/bergiu/workspace/Uni/MCT/Projekt/msp432/communication.cpp"}
,{"directory": "/home/bergiu/workspace/Uni/MCT/Projekt/msp432","command": "/opt/ti/ccsv7/tools/compiler/gcc-arm-none-eabi-6-2017-q1-update/bin/arm-none-eabi-g++ -D__MSP432P401R__ -DTARGET_IS_MSP432P4XX -I/opt/YAHAL/src/platform/msp432 -I/opt/YAHAL/include/interface -I/opt/YAHAL/src/driver -I/opt/YAHAL/src/task -I/opt/YAHAL/src/util -I/opt/YAHAL/src/uGUI -I/opt/YAHAL/src/uGUI/fonts -I/opt/YAHAL/include/platform/msp432 -I/opt/YAHAL/include/platform/msp432/CMSIS -ffunction-sections -fdata-sections -fno-unwind-tables -fno-asynchronous-unwind-tables -mcpu=cortex-m4 -mthumb -mfloat-abi=hard -mfpu=fpv4-sp-d16 -mabi=aapcs -g -gdwarf-3 -gstrict-dwarf -Wall -Wextra -fno-threadsafe-statics -fno-exceptions -std=c++11 -c -o Debug/communication.cpp.o communication.cpp -MMD -DLANGSERV","file": "/home/bergiu/workspace/Uni/MCT/Projekt/msp432/communication.hpp"}
,{
"directory": "/home/bergiu/workspace/Uni/MCT/Projekt/msp432","command": "/opt/ti/ccsv7/tools/compiler/gcc-arm-none-eabi-6-2017-q1-update/bin/arm-none-eabi-g++ -D__MSP432P401R__ -DTARGET_IS_MSP432P4XX -I/opt/YAHAL/src/platform/msp432 -I/opt/YAHAL/include/interface -I/opt/YAHAL/src/driver -I/opt/YAHAL/src/task -I/opt/YAHAL/src/util -I/opt/YAHAL/src/uGUI -I/opt/YAHAL/src/uGUI/fonts -I/opt/YAHAL/include/platform/msp432 -I/opt/YAHAL/include/platform/msp432/CMSIS -ffunction-sections -fdata-sections -fno-unwind-tables -fno-asynchronous-unwind-tables -mcpu=cortex-m4 -mthumb -mfloat-abi=hard -mfpu=fpv4-sp-d16 -mabi=aapcs -g -gdwarf-3 -gstrict-dwarf -Wall -Wextra -fno-threadsafe-statics -fno-exceptions -std=c++11 -c -o Debug/project_main.cpp.o project_main.cpp -MMD -DLANGSERV","file": "/home/bergiu/workspace/Uni/MCT/Projekt/msp432/project_main.cpp"}
,{"directory": "/home/bergiu/workspace/Uni/MCT/Projekt/msp432","command": "/opt/ti/ccsv7/tools/compiler/gcc-arm-none-eabi-6-2017-q1-update/bin/arm-none-eabi-g++ -D__MSP432P401R__ -DTARGET_IS_MSP432P4XX -I/opt/YAHAL/src/platform/msp432 -I/opt/YAHAL/include/interface -I/opt/YAHAL/src/driver -I/opt/YAHAL/src/task -I/opt/YAHAL/src/util -I/opt/YAHAL/src/uGUI -I/opt/YAHAL/src/uGUI/fonts -I/opt/YAHAL/include/platform/msp432 -I/opt/YAHAL/include/platform/msp432/CMSIS -ffunction-sections -fdata-sections -fno-unwind-tables -fno-asynchronous-unwind-tables -mcpu=cortex-m4 -mthumb -mfloat-abi=hard -mfpu=fpv4-sp-d16 -mabi=aapcs -g -gdwarf-3 -gstrict-dwarf -Wall -Wextra -fno-threadsafe-statics -fno-exceptions -std=c++11 -c -o Debug/project_main.cpp.o project_main.cpp -MMD -DLANGSERV","file": "/home/bergiu/workspace/Uni/MCT/Projekt/msp432/project_main.hpp"}
,{
"directory": "/home/bergiu/workspace/Uni/MCT/Projekt/msp432","command": "/opt/ti/ccsv7/tools/compiler/gcc-arm-none-eabi-6-2017-q1-update/bin/arm-none-eabi-g++ -D__MSP432P401R__ -DTARGET_IS_MSP432P4XX -I/opt/YAHAL/src/platform/msp432 -I/opt/YAHAL/include/interface -I/opt/YAHAL/src/driver -I/opt/YAHAL/src/task -I/opt/YAHAL/src/util -I/opt/YAHAL/src/uGUI -I/opt/YAHAL/src/uGUI/fonts -I/opt/YAHAL/include/platform/msp432 -I/opt/YAHAL/include/platform/msp432/CMSIS -ffunction-sections -fdata-sections -fno-unwind-tables -fno-asynchronous-unwind-tables -mcpu=cortex-m4 -mthumb -mfloat-abi=hard -mfpu=fpv4-sp-d16 -mabi=aapcs -g -gdwarf-3 -gstrict-dwarf -Wall -Wextra -fno-threadsafe-statics -fno-exceptions -std=c++11 -c -o Debug/hardware.cpp.o hardware.cpp -MMD -DLANGSERV","file": "/home/bergiu/workspace/Uni/MCT/Projekt/msp432/hardware.cpp"}
,{"directory": "/home/bergiu/workspace/Uni/MCT/Projekt/msp432","command": "/opt/ti/ccsv7/tools/compiler/gcc-arm-none-eabi-6-2017-q1-update/bin/arm-none-eabi-g++ -D__MSP432P401R__ -DTARGET_IS_MSP432P4XX -I/opt/YAHAL/src/platform/msp432 -I/opt/YAHAL/include/interface -I/opt/YAHAL/src/driver -I/opt/YAHAL/src/task -I/opt/YAHAL/src/util -I/opt/YAHAL/src/uGUI -I/opt/YAHAL/src/uGUI/fonts -I/opt/YAHAL/include/platform/msp432 -I/opt/YAHAL/include/platform/msp432/CMSIS -ffunction-sections -fdata-sections -fno-unwind-tables -fno-asynchronous-unwind-tables -mcpu=cortex-m4 -mthumb -mfloat-abi=hard -mfpu=fpv4-sp-d16 -mabi=aapcs -g -gdwarf-3 -gstrict-dwarf -Wall -Wextra -fno-threadsafe-statics -fno-exceptions -std=c++11 -c -o Debug/hardware.cpp.o hardware.cpp -MMD -DLANGSERV","file": "/home/bergiu/workspace/Uni/MCT/Projekt/msp432/hardware.hpp"}
,{
"directory": "/home/bergiu/workspace/Uni/MCT/Projekt/msp432","command": "/opt/ti/ccsv7/tools/compiler/gcc-arm-none-eabi-6-2017-q1-update/bin/arm-none-eabi-g++ -D__MSP432P401R__ -DTARGET_IS_MSP432P4XX -I/opt/YAHAL/src/platform/msp432 -I/opt/YAHAL/include/interface -I/opt/YAHAL/src/driver -I/opt/YAHAL/src/task -I/opt/YAHAL/src/util -I/opt/YAHAL/src/uGUI -I/opt/YAHAL/src/uGUI/fonts -I/opt/YAHAL/include/platform/msp432 -I/opt/YAHAL/include/platform/msp432/CMSIS -ffunction-sections -fdata-sections -fno-unwind-tables -fno-asynchronous-unwind-tables -mcpu=cortex-m4 -mthumb -mfloat-abi=hard -mfpu=fpv4-sp-d16 -mabi=aapcs -g -gdwarf-3 -gstrict-dwarf -Wall -Wextra -fno-threadsafe-statics -fno-exceptions -std=c++11 -c -o Debug/project_testing.cpp.o project_testing.cpp -MMD -DLANGSERV","file": "/home/bergiu/workspace/Uni/MCT/Projekt/msp432/project_testing.cpp"}
,{"directory": "/home/bergiu/workspace/Uni/MCT/Projekt/msp432","command": "/opt/ti/ccsv7/tools/compiler/gcc-arm-none-eabi-6-2017-q1-update/bin/arm-none-eabi-g++ -D__MSP432P401R__ -DTARGET_IS_MSP432P4XX -I/opt/YAHAL/src/platform/msp432 -I/opt/YAHAL/include/interface -I/opt/YAHAL/src/driver -I/opt/YAHAL/src/task -I/opt/YAHAL/src/util -I/opt/YAHAL/src/uGUI -I/opt/YAHAL/src/uGUI/fonts -I/opt/YAHAL/include/platform/msp432 -I/opt/YAHAL/include/platform/msp432/CMSIS -ffunction-sections -fdata-sections -fno-unwind-tables -fno-asynchronous-unwind-tables -mcpu=cortex-m4 -mthumb -mfloat-abi=hard -mfpu=fpv4-sp-d16 -mabi=aapcs -g -gdwarf-3 -gstrict-dwarf -Wall -Wextra -fno-threadsafe-statics -fno-exceptions -std=c++11 -c -o Debug/project_testing.cpp.o project_testing.cpp -MMD -DLANGSERV","file": "/home/bergiu/workspace/Uni/MCT/Projekt/msp432/project_testing.hpp"}
,{
"directory": "/home/bergiu/workspace/Uni/MCT/Projekt/msp432","command": "/opt/ti/ccsv7/tools/compiler/gcc-arm-none-eabi-6-2017-q1-update/bin/arm-none-eabi-g++ -D__MSP432P401R__ -DTARGET_IS_MSP432P4XX -I/opt/YAHAL/src/platform/msp432 -I/opt/YAHAL/include/interface -I/opt/YAHAL/src/driver -I/opt/YAHAL/src/task -I/opt/YAHAL/src/util -I/opt/YAHAL/src/uGUI -I/opt/YAHAL/src/uGUI/fonts -I/opt/YAHAL/include/platform/msp432 -I/opt/YAHAL/include/platform/msp432/CMSIS -ffunction-sections -fdata-sections -fno-unwind-tables -fno-asynchronous-unwind-tables -mcpu=cortex-m4 -mthumb -mfloat-abi=hard -mfpu=fpv4-sp-d16 -mabi=aapcs -g -gdwarf-3 -gstrict-dwarf -Wall -Wextra -fno-threadsafe-statics -fno-exceptions -std=c++11 -c -o Debug/geometrics.cpp.o geometrics.cpp -MMD -DLANGSERV","file": "/home/bergiu/workspace/Uni/MCT/Projekt/msp432/geometrics.cpp"}
,{"directory": "/home/bergiu/workspace/Uni/MCT/Projekt/msp432","command": "/opt/ti/ccsv7/tools/compiler/gcc-arm-none-eabi-6-2017-q1-update/bin/arm-none-eabi-g++ -D__MSP432P401R__ -DTARGET_IS_MSP432P4XX -I/opt/YAHAL/src/platform/msp432 -I/opt/YAHAL/include/interface -I/opt/YAHAL/src/driver -I/opt/YAHAL/src/task -I/opt/YAHAL/src/util -I/opt/YAHAL/src/uGUI -I/opt/YAHAL/src/uGUI/fonts -I/opt/YAHAL/include/platform/msp432 -I/opt/YAHAL/include/platform/msp432/CMSIS -ffunction-sections -fdata-sections -fno-unwind-tables -fno-asynchronous-unwind-tables -mcpu=cortex-m4 -mthumb -mfloat-abi=hard -mfpu=fpv4-sp-d16 -mabi=aapcs -g -gdwarf-3 -gstrict-dwarf -Wall -Wextra -fno-threadsafe-statics -fno-exceptions -std=c++11 -c -o Debug/geometrics.cpp.o geometrics.cpp -MMD -DLANGSERV","file": "/home/bergiu/workspace/Uni/MCT/Projekt/msp432/geometrics.hpp"}
,{
"directory": "/home/bergiu/workspace/Uni/MCT/Projekt/msp432","command": "/opt/ti/ccsv7/tools/compiler/gcc-arm-none-eabi-6-2017-q1-update/bin/arm-none-eabi-g++ -D__MSP432P401R__ -DTARGET_IS_MSP432P4XX -I/opt/YAHAL/src/platform/msp432 -I/opt/YAHAL/include/interface -I/opt/YAHAL/src/driver -I/opt/YAHAL/src/task -I/opt/YAHAL/src/util -I/opt/YAHAL/src/uGUI -I/opt/YAHAL/src/uGUI/fonts -I/opt/YAHAL/include/platform/msp432 -I/opt/YAHAL/include/platform/msp432/CMSIS -ffunction-sections -fdata-sections -fno-unwind-tables -fno-asynchronous-unwind-tables -mcpu=cortex-m4 -mthumb -mfloat-abi=hard -mfpu=fpv4-sp-d16 -mabi=aapcs -g -gdwarf-3 -gstrict-dwarf -Wall -Wextra -fno-threadsafe-statics -fno-exceptions -std=c++11 -c -o Debug/menu.cpp.o menu.cpp -MMD -DLANGSERV","file": "/home/bergiu/workspace/Uni/MCT/Projekt/msp432/menu.cpp"}
,{"directory": "/home/bergiu/workspace/Uni/MCT/Projekt/msp432","command": "/opt/ti/ccsv7/tools/compiler/gcc-arm-none-eabi-6-2017-q1-update/bin/arm-none-eabi-g++ -D__MSP432P401R__ -DTARGET_IS_MSP432P4XX -I/opt/YAHAL/src/platform/msp432 -I/opt/YAHAL/include/interface -I/opt/YAHAL/src/driver -I/opt/YAHAL/src/task -I/opt/YAHAL/src/util -I/opt/YAHAL/src/uGUI -I/opt/YAHAL/src/uGUI/fonts -I/opt/YAHAL/include/platform/msp432 -I/opt/YAHAL/include/platform/msp432/CMSIS -ffunction-sections -fdata-sections -fno-unwind-tables -fno-asynchronous-unwind-tables -mcpu=cortex-m4 -mthumb -mfloat-abi=hard -mfpu=fpv4-sp-d16 -mabi=aapcs -g -gdwarf-3 -gstrict-dwarf -Wall -Wextra -fno-threadsafe-statics -fno-exceptions -std=c++11 -c -o Debug/menu.cpp.o menu.cpp -MMD -DLANGSERV","file": "/home/bergiu/workspace/Uni/MCT/Projekt/msp432/menu.hpp"}
,{
"directory": "/home/bergiu/workspace/Uni/MCT/Projekt/msp432","command": "/opt/ti/ccsv7/tools/compiler/gcc-arm-none-eabi-6-2017-q1-update/bin/arm-none-eabi-g++ -D__MSP432P401R__ -DTARGET_IS_MSP432P4XX -I/opt/YAHAL/src/platform/msp432 -I/opt/YAHAL/include/interface -I/opt/YAHAL/src/driver -I/opt/YAHAL/src/task -I/opt/YAHAL/src/util -I/opt/YAHAL/src/uGUI -I/opt/YAHAL/src/uGUI/fonts -I/opt/YAHAL/include/platform/msp432 -I/opt/YAHAL/include/platform/msp432/CMSIS -ffunction-sections -fdata-sections -fno-unwind-tables -fno-asynchronous-unwind-tables -mcpu=cortex-m4 -mthumb -mfloat-abi=hard -mfpu=fpv4-sp-d16 -mabi=aapcs -g -gdwarf-3 -gstrict-dwarf -Wall -Wextra -fno-threadsafe-statics -fno-exceptions -std=c++11 -c -o Debug/bot.cpp.o bot.cpp -MMD -DLANGSERV","file": "/home/bergiu/workspace/Uni/MCT/Projekt/msp432/bot.cpp"}
,{"directory": "/home/bergiu/workspace/Uni/MCT/Projekt/msp432","command": "/opt/ti/ccsv7/tools/compiler/gcc-arm-none-eabi-6-2017-q1-update/bin/arm-none-eabi-g++ -D__MSP432P401R__ -DTARGET_IS_MSP432P4XX -I/opt/YAHAL/src/platform/msp432 -I/opt/YAHAL/include/interface -I/opt/YAHAL/src/driver -I/opt/YAHAL/src/task -I/opt/YAHAL/src/util -I/opt/YAHAL/src/uGUI -I/opt/YAHAL/src/uGUI/fonts -I/opt/YAHAL/include/platform/msp432 -I/opt/YAHAL/include/platform/msp432/CMSIS -ffunction-sections -fdata-sections -fno-unwind-tables -fno-asynchronous-unwind-tables -mcpu=cortex-m4 -mthumb -mfloat-abi=hard -mfpu=fpv4-sp-d16 -mabi=aapcs -g -gdwarf-3 -gstrict-dwarf -Wall -Wextra -fno-threadsafe-statics -fno-exceptions -std=c++11 -c -o Debug/bot.cpp.o bot.cpp -MMD -DLANGSERV","file": "/home/bergiu/workspace/Uni/MCT/Projekt/msp432/bot.hpp"}
,{
"directory": "/home/bergiu/workspace/Uni/MCT/Projekt/msp432","command": "/opt/ti/ccsv7/tools/compiler/gcc-arm-none-eabi-6-2017-q1-update/bin/arm-none-eabi-g++ -D__MSP432P401R__ -DTARGET_IS_MSP432P4XX -I/opt/YAHAL/src/platform/msp432 -I/opt/YAHAL/include/interface -I/opt/YAHAL/src/driver -I/opt/YAHAL/src/task -I/opt/YAHAL/src/util -I/opt/YAHAL/src/uGUI -I/opt/YAHAL/src/uGUI/fonts -I/opt/YAHAL/include/platform/msp432 -I/opt/YAHAL/include/platform/msp432/CMSIS -ffunction-sections -fdata-sections -fno-unwind-tables -fno-asynchronous-unwind-tables -mcpu=cortex-m4 -mthumb -mfloat-abi=hard -mfpu=fpv4-sp-d16 -mabi=aapcs -g -gdwarf-3 -gstrict-dwarf -Wall -Wextra -fno-threadsafe-statics -fno-exceptions -std=c++11 -c -o Debug/main.cpp.o main.cpp -MMD -DLANGSERV","file": "/home/bergiu/workspace/Uni/MCT/Projekt/msp432/main.cpp"}
,{
"directory": "/home/bergiu/workspace/Uni/MCT/Projekt/msp432","command": "/opt/ti/ccsv7/tools/compiler/gcc-arm-none-eabi-6-2017-q1-update/bin/arm-none-eabi-g++ -D__MSP432P401R__ -DTARGET_IS_MSP432P4XX -I/opt/YAHAL/src/platform/msp432 -I/opt/YAHAL/include/interface -I/opt/YAHAL/src/driver -I/opt/YAHAL/src/task -I/opt/YAHAL/src/util -I/opt/YAHAL/src/uGUI -I/opt/YAHAL/src/uGUI/fonts -I/opt/YAHAL/include/platform/msp432 -I/opt/YAHAL/include/platform/msp432/CMSIS -ffunction-sections -fdata-sections -fno-unwind-tables -fno-asynchronous-unwind-tables -mcpu=cortex-m4 -mthumb -mfloat-abi=hard -mfpu=fpv4-sp-d16 -mabi=aapcs -g -gdwarf-3 -gstrict-dwarf -Wall -Wextra -fno-threadsafe-statics -fno-exceptions -std=c++11 -c -o Debug/project.cpp.o project.cpp -MMD -DLANGSERV","file": "/home/bergiu/workspace/Uni/MCT/Projekt/msp432/project.cpp"}
,{"directory": "/home/bergiu/workspace/Uni/MCT/Projekt/msp432","command": "/opt/ti/ccsv7/tools/compiler/gcc-arm-none-eabi-6-2017-q1-update/bin/arm-none-eabi-g++ -D__MSP432P401R__ -DTARGET_IS_MSP432P4XX -I/opt/YAHAL/src/platform/msp432 -I/opt/YAHAL/include/interface -I/opt/YAHAL/src/driver -I/opt/YAHAL/src/task -I/opt/YAHAL/src/util -I/opt/YAHAL/src/uGUI -I/opt/YAHAL/src/uGUI/fonts -I/opt/YAHAL/include/platform/msp432 -I/opt/YAHAL/include/platform/msp432/CMSIS -ffunction-sections -fdata-sections -fno-unwind-tables -fno-asynchronous-unwind-tables -mcpu=cortex-m4 -mthumb -mfloat-abi=hard -mfpu=fpv4-sp-d16 -mabi=aapcs -g -gdwarf-3 -gstrict-dwarf -Wall -Wextra -fno-threadsafe-statics -fno-exceptions -std=c++11 -c -o Debug/project.cpp.o project.cpp -MMD -DLANGSERV","file": "/home/bergiu/workspace/Uni/MCT/Projekt/msp432/project.hpp"}
,{
"directory": "/home/bergiu/workspace/Uni/MCT/Projekt/msp432","command": "/opt/ti/ccsv7/tools/compiler/gcc-arm-none-eabi-6-2017-q1-update/bin/arm-none-eabi-gcc -D__MSP432P401R__ -DTARGET_IS_MSP432P4XX -I/opt/YAHAL/src/platform/msp432 -I/opt/YAHAL/include/interface -I/opt/YAHAL/src/driver -I/opt/YAHAL/src/task -I/opt/YAHAL/src/util -I/opt/YAHAL/src/uGUI -I/opt/YAHAL/src/uGUI/fonts -I/opt/YAHAL/include/platform/msp432 -I/opt/YAHAL/include/platform/msp432/CMSIS -ffunction-sections -fdata-sections -fno-unwind-tables -fno-asynchronous-unwind-tables -mcpu=cortex-m4 -mthumb -mfloat-abi=hard -mfpu=fpv4-sp-d16 -mabi=aapcs -g -gdwarf-3 -gstrict-dwarf -Wall -Wextra -c -o Debug/startup_msp432p401r_gcc.c.o startup_msp432p401r_gcc.c -MMD -DLANGSERV","file": "/home/bergiu/workspace/Uni/MCT/Projekt/msp432/startup_msp432p401r_gcc.c"}
,{
"directory": "/home/bergiu/workspace/Uni/MCT/Projekt/msp432","command": "/opt/ti/ccsv7/tools/compiler/gcc-arm-none-eabi-6-2017-q1-update/bin/arm-none-eabi-gcc -D__MSP432P401R__ -DTARGET_IS_MSP432P4XX -I/opt/YAHAL/src/platform/msp432 -I/opt/YAHAL/include/interface -I/opt/YAHAL/src/driver -I/opt/YAHAL/src/task -I/opt/YAHAL/src/util -I/opt/YAHAL/src/uGUI -I/opt/YAHAL/src/uGUI/fonts -I/opt/YAHAL/include/platform/msp432 -I/opt/YAHAL/include/platform/msp432/CMSIS -ffunction-sections -fdata-sections -fno-unwind-tables -fno-asynchronous-unwind-tables -mcpu=cortex-m4 -mthumb -mfloat-abi=hard -mfpu=fpv4-sp-d16 -mabi=aapcs -g -gdwarf-3 -gstrict-dwarf -Wall -Wextra -c -o Debug/system_msp432p401r.c.o system_msp432p401r.c -MMD -DLANGSERV","file": "/home/bergiu/workspace/Uni/MCT/Projekt/msp432/system_msp432p401r.c"}
]
