[
{
"directory": "/home/bergiu/workspace/Uni/MCT/Projekt/msp432","command": "/opt/ti/ccsv7/tools/compiler/gcc-arm-none-eabi-6-2017-q1-update/bin/arm-none-eabi-g++ -D__MSP432P401R__ -DTARGET_IS_MSP432P4XX -DARM_MATH_CM4 -D__FPU_PRESENT=1 -I/opt/YAHAL/src/platform/msp432 -I/opt/YAHAL/include/interface -I/opt/YAHAL/src/driver -I/opt/YAHAL/src/task -I/opt/YAHAL/src/util -I/opt/YAHAL/include/platform/msp432 -I/opt/YAHAL/include/platform/msp432/CMSIS -ffunction-sections -fdata-sections -fno-unwind-tables -fno-asynchronous-unwind-tables -mcpu=cortex-m4 -mthumb -mfloat-abi=hard -mfpu=fpv4-sp-d16 -mabi=aapcs -g -gdwarf-3 -gstrict-dwarf -Wall -Wextra -fno-threadsafe-statics -fno-exceptions -std=c++11 -c -o Debug/main.cpp.o main.cpp -MMD","file": "/home/bergiu/workspace/Uni/MCT/Projekt/msp432/main.cpp"}
,{
"directory": "/home/bergiu/workspace/Uni/MCT/Projekt/msp432","command": "/opt/ti/ccsv7/tools/compiler/gcc-arm-none-eabi-6-2017-q1-update/bin/arm-none-eabi-gcc -D__MSP432P401R__ -DTARGET_IS_MSP432P4XX -DARM_MATH_CM4 -D__FPU_PRESENT=1 -I/opt/YAHAL/src/platform/msp432 -I/opt/YAHAL/include/interface -I/opt/YAHAL/src/driver -I/opt/YAHAL/src/task -I/opt/YAHAL/src/util -I/opt/YAHAL/include/platform/msp432 -I/opt/YAHAL/include/platform/msp432/CMSIS -ffunction-sections -fdata-sections -fno-unwind-tables -fno-asynchronous-unwind-tables -mcpu=cortex-m4 -mthumb -mfloat-abi=hard -mfpu=fpv4-sp-d16 -mabi=aapcs -g -gdwarf-3 -gstrict-dwarf -Wall -Wextra -c -o Debug/startup_msp432p401r_gcc.c.o startup_msp432p401r_gcc.c -MMD","file": "/home/bergiu/workspace/Uni/MCT/Projekt/msp432/startup_msp432p401r_gcc.c"}
,{
"directory": "/home/bergiu/workspace/Uni/MCT/Projekt/msp432","command": "/opt/ti/ccsv7/tools/compiler/gcc-arm-none-eabi-6-2017-q1-update/bin/arm-none-eabi-gcc -D__MSP432P401R__ -DTARGET_IS_MSP432P4XX -DARM_MATH_CM4 -D__FPU_PRESENT=1 -I/opt/YAHAL/src/platform/msp432 -I/opt/YAHAL/include/interface -I/opt/YAHAL/src/driver -I/opt/YAHAL/src/task -I/opt/YAHAL/src/util -I/opt/YAHAL/include/platform/msp432 -I/opt/YAHAL/include/platform/msp432/CMSIS -ffunction-sections -fdata-sections -fno-unwind-tables -fno-asynchronous-unwind-tables -mcpu=cortex-m4 -mthumb -mfloat-abi=hard -mfpu=fpv4-sp-d16 -mabi=aapcs -g -gdwarf-3 -gstrict-dwarf -Wall -Wextra -c -o Debug/system_msp432p401r.c.o system_msp432p401r.c -MMD","file": "/home/bergiu/workspace/Uni/MCT/Projekt/msp432/system_msp432p401r.c"}
]
